[
    "asshole",
    "fuck",
    "dick",
    "shit",
    "nigger",
    "whore",
    "cunt",
    "penis",
    "cock",
    "nigga",
    "anus",
    "bitch",
    "slut",
    "fag",
    "retard",
    "vag",
    "pussy"
]